{
  "isEnabled": true,

  "backgroundColor": "#0069b5",
  "backgroundImagePath": "../project/dist/images/timelineProgress.png",
  "fontColor": "#fff",
  "hoverProgressColor": "#1a83cf",
  "hoverProgressImagePath": ""
}